{
	"job" : [
		{"title" : "All Inclusive Holidays"},
		{"title" : "Budget Breaks UK"},
		{"title" : "Budget Breaks Portugal & Spain"},
		{"title" : "Luxury Golf Holidays"},
		{"title" : "UK Golf Tours"},
		{"title" : "Bucket List Worldwide Golf Experiences"},
		{"title" : "Golf & Nightlife"},
		{"title" : "Golf & Football"},
		{"title" : "City Breaks"},
		{"title" : "Golf & Safari Africa"},
		{"title" : "Golf & Safari Sri Lanka"},
		{"title" : "Golf & Niagara Falls"},
		{"title" : "Golf & Wine"},
		{"title" : "Golf & Culture Italy"},
		{"title" : "Golf & Skiing Spain"},
		{"title" : "Stag Do Golf Weekends"},
		{"title" : "Winter Sun Golf Holidays"},
		{"title" : "Golf & Spa Breaks"},
		{"title" : "Stay & Play Golf Breaks"},
		{"title" : "Celebrity Golf Breaks"},
		{"title" : "Tuition Breaks"},
		{"title" : "US Masters Golf Holiday"},
		{"title" : "Green Fees"}
	]		
}